25
1 13 17 24 
2 1 5 11 
3 11 17 20 
4 2 12 17 
5 7 12 18 
6 11 22 24 
7 17 20 25 
8 5 8 10 
9 1 13 23 
10 11 18 19 
11 3 16 25 
12 7 15 21 
13 2 4 11 
14 1 7 22 
15 16 17 25 
16 2 17 24 
17 8 20 24 
18 11 12 19 
19 14 20 24 
20 2 4 7 
21 12 20 23 
22 7 9 14 
23 15 20 24 
24 2 10 24 
25 11 17 20 
1 1 0 1 0 0 1 1 
1 1 0 0 0 0 0 0 
1 0 1 0 1 0 1 1 
1 0 1 0 1 0 0 0 
0 1 0 1 0 1 0 0 
0 0 1 1 1 0 0 0 
0 0 0 1 1 0 1 1 
1 1 1 1 0 1 0 1 
1 1 0 0 1 0 1 1 
0 0 1 1 0 1 1 1 
0 1 0 1 0 0 0 1 
1 1 0 1 1 0 0 0 
0 0 0 1 0 0 1 1 
1 0 1 0 1 0 0 0 
0 0 0 0 1 1 1 1 
0 1 0 1 1 0 0 0 
0 0 1 0 1 0 1 1 
0 0 1 0 1 0 0 0 
1 0 1 1 1 0 1 1 
1 1 1 0 1 0 1 0 
1 0 1 0 0 1 0 1 
0 1 1 0 1 1 0 0 
1 0 1 0 0 1 1 1 
0 1 0 0 1 0 1 0 
0 1 1 1 0 1 0 1 